{
  "content": [
    {
      "uuid": "13432",
      "name": "test 0",
      "phoneNumber": "0423 4423423"
    },
    {
      "uuid": "13432132",
      "name": "test 1",
      "phoneNumber": "0423 4423423"
    },
    {
      "uuid": "13412312",
      "name": "test 2",
      "phoneNumber": "0423 4423423"
    },
    {
      "uuid": "13412312332",
      "name": "test 3",
      "phoneNumber": "04234423423"
    },
    {
      "uuid": "1341124532",
      "name": "test 4",
      "phoneNumber": "0423 4423423"
    }
  ],
  "pageNumber": 5,
  "pageSize": 2,
  "totalPages": 20,
  "totalElements": 100
}
